%YAML 1.1
%TAG !u! tag:unity3d.com,2011:
--- !u!1001 &1577263387339250970
PrefabInstance:
  m_ObjectHideFlags: 0
  serializedVersion: 2
  m_Modification:
    m_TransformParent: {fileID: 0}
    m_Modifications:
    - target: {fileID: 2880356407894436468, guid: 393ed26ab25b715459af95545d06cabb,
        type: 3}
      propertyPath: m_LocalPosition.x
      value: 1.7943158
      objectReference: {fileID: 0}
    - target: {fileID: 2880356407894436468, guid: 393ed26ab25b715459af95545d06cabb,
        type: 3}
      propertyPath: m_LocalPosition.y
      value: -2.1457796
      objectReference: {fileID: 0}
    - target: {fileID: 2880356407894436468, guid: 393ed26ab25b715459af95545d06cabb,
        type: 3}
      propertyPath: m_LocalPosition.z
      value: 12.041775
      objectReference: {fileID: 0}
    - target: {fileID: 2880356407894436468, guid: 393ed26ab25b715459af95545d06cabb,
        type: 3}
      propertyPath: m_LocalRotation.x
      value: 0.7071068
      objectReference: {fileID: 0}
    - target: {fileID: 2880356407894436468, guid: 393ed26ab25b715459af95545d06cabb,
        type: 3}
      propertyPath: m_LocalRotation.y
      value: 0
      objectReference: {fileID: 0}
    - target: {fileID: 2880356407894436468, guid: 393ed26ab25b715459af95545d06cabb,
        type: 3}
      propertyPath: m_LocalRotation.z
      value: 0
      objectReference: {fileID: 0}
    - target: {fileID: 2880356407894436468, guid: 393ed26ab25b715459af95545d06cabb,
        type: 3}
      propertyPath: m_LocalRotation.w
      value: 0.7071068
      objectReference: {fileID: 0}
    - target: {fileID: 2880356407894436468, guid: 393ed26ab25b715459af95545d06cabb,
        type: 3}
      propertyPath: m_RootOrder
      value: 0
      objectReference: {fileID: 0}
    - target: {fileID: 2880356407894436468, guid: 393ed26ab25b715459af95545d06cabb,
        type: 3}
      propertyPath: m_LocalEulerAnglesHint.x
      value: 90
      objectReference: {fileID: 0}
    - target: {fileID: 2880356407894436468, guid: 393ed26ab25b715459af95545d06cabb,
        type: 3}
      propertyPath: m_LocalEulerAnglesHint.y
      value: 0
      objectReference: {fileID: 0}
    - target: {fileID: 2880356407894436468, guid: 393ed26ab25b715459af95545d06cabb,
        type: 3}
      propertyPath: m_LocalEulerAnglesHint.z
      value: 0
      objectReference: {fileID: 0}
    - target: {fileID: 2880356407894436468, guid: 393ed26ab25b715459af95545d06cabb,
        type: 3}
      propertyPath: m_LocalScale.x
      value: 0.3
      objectReference: {fileID: 0}
    - target: {fileID: 2880356407894436468, guid: 393ed26ab25b715459af95545d06cabb,
        type: 3}
      propertyPath: m_LocalScale.y
      value: 0.9
      objectReference: {fileID: 0}
    - target: {fileID: 8820853532207263629, guid: 393ed26ab25b715459af95545d06cabb,
        type: 3}
      propertyPath: speed
      value: 15
      objectReference: {fileID: 0}
    - target: {fileID: 8888191476424041137, guid: 393ed26ab25b715459af95545d06cabb,
        type: 3}
      propertyPath: m_Name
      value: Bullet
      objectReference: {fileID: 0}
    m_RemovedComponents: []
  m_SourcePrefab: {fileID: 100100000, guid: 393ed26ab25b715459af95545d06cabb, type: 3}
