%YAML 1.1
%TAG !u! tag:unity3d.com,2011:
--- !u!1045 &1
EditorBuildSettings:
  m_ObjectHideFlags: 0
  serializedVersion: 2
  m_Scenes:
  - enabled: 1
    path: Assets/Scenes/Menu.unity
    guid: 85bc81b3bef07bc489e7a67ab3f40350
  - enabled: 1
    path: Assets/Scenes/Level_1.unity
    guid: 083dbb898cf26074bb3d4b916ba4a6da
  - enabled: 1
    path: Assets/Scenes/Level_2.unity
    guid: 6e4ff6d140a87ff4ca8942caa601518e
  m_configObjects: {}
